%YAML 1.1
%TAG !u! tag:unity3d.com,2011:
--- !u!1045 &1
EditorBuildSettings:
  m_ObjectHideFlags: 0
  serializedVersion: 2
  m_Scenes:
  - enabled: 1
    path: Assets/Scenes/Menu.unity
    guid: f24ffba4e3c68bc4488dae269515c333
  - enabled: 1
    path: Assets/Scenes/Game2D.unity
    guid: d7465276f0e28fb4994068b5d933e7bd
  m_configObjects: {}
